"T1C_FR__EXTERNAL_ID__C","NAME","T1C_FR__FEATURE__R.T1C_FR__EXTERNAL_ID__C","T1C_FR__USER_OVERRIDABLE__C","T1C_FR__VALUE__C"
"ACE.ALM.ApplicationSettings.ACECubes.SummaryCube.AccountDetail:CORE:ObjectName","ObjectName","ACE.ALM.ApplicationSettings.ACECubes.SummaryCube.AccountDetail:CORE","false","Account"
"ACE.ALM.ApplicationSettings.ACECubes.SummaryCube.AccountDetail:CORE:Order","Order","ACE.ALM.ApplicationSettings.ACECubes.SummaryCube.AccountDetail:CORE","false","1"
"ACE.ALM.ApplicationSettings.ACECubes.SummaryCube.AccountDetail:CORE:RelatedAccountFieldForAddresses","RelatedAccountFieldForAddresses","ACE.ALM.ApplicationSettings.ACECubes.SummaryCube.AccountDetail:CORE","false","Id"
"ACE.ALM.ApplicationSettings.ACECubes.SummaryCube.AccountDetail.Buttons.ClickToDial:CORE:DataField","DataField","ACE.ALM.ApplicationSettings.ACECubes.SummaryCube.AccountDetail.Buttons.ClickToDial:CORE","false","account.Phone"
"ACE.ALM.ApplicationSettings.ACECubes.SummaryCube.AccountDetail.Buttons.ClickToDial:CORE:Label","Label","ACE.ALM.ApplicationSettings.ACECubes.SummaryCube.AccountDetail.Buttons.ClickToDial:CORE","false","Click to Dial"
"ACE.ALM.ApplicationSettings.ACECubes.SummaryCube.AccountDetail.Buttons.ClickToDial:CORE:Order","Order","ACE.ALM.ApplicationSettings.ACECubes.SummaryCube.AccountDetail.Buttons.ClickToDial:CORE","false","0"
"ACE.ALM.ApplicationSettings.ACECubes.SummaryCube.AccountDetail.Buttons.ClickToDial:CORE:SVGIcon","SVGIcon","ACE.ALM.ApplicationSettings.ACECubes.SummaryCube.AccountDetail.Buttons.ClickToDial:CORE","false","<svg style=""width:20px;height:20px"" viewBox=""0 0 24 24"">
    <path fill=""#00ff00"" d=""M4,3A1,1 0 0,0 3,4A17,17 0 0,0 20,21A1,1 0 0,0 21,20V16.5A1,1 0 0,0 20,15.5C18.75,15.5 17.55,15.3 16.43,14.93C16.08,14.82 15.69,14.9 15.41,15.17L13.21,17.37C10.38,15.93 8.06,13.62 6.62,10.78L8.82,8.57C9.1,8.31 9.18,7.92 9.07,7.57C8.7,6.45 8.5,5.25 8.5,4A1,1 0 0,0 7.5,3H4M15,3V4.5H18.5L13,10L14,11L19.5,5.5V9H21V3H15Z"" />
</svg>"
"ACE.ALM.ApplicationSettings.ACECubes.SummaryCube.AccountDetail.Buttons.ClickToDial:CORE:URLPrefix","URLPrefix","ACE.ALM.ApplicationSettings.ACECubes.SummaryCube.AccountDetail.Buttons.ClickToDial:CORE","false","tel:"
"ACE.ALM.ApplicationSettings.ACECubes.SummaryCube.AccountDetail.Buttons.ClickToDial:CORE:URLTarget","URLTarget","ACE.ALM.ApplicationSettings.ACECubes.SummaryCube.AccountDetail.Buttons.ClickToDial:CORE","false",""
"ACE.ALM.ApplicationSettings.ACECubes.SummaryCube.AccountDetail.Fields.BillingAddress:CORE:AddressType","AddressType","ACE.ALM.ApplicationSettings.ACECubes.SummaryCube.AccountDetail.Fields.BillingAddress:CORE","false","Billing"
"ACE.ALM.ApplicationSettings.ACECubes.SummaryCube.AccountDetail.Fields.BillingAddress:CORE:ClearAddressFieldsOnNull","ClearAddressFieldsOnNull","ACE.ALM.ApplicationSettings.ACECubes.SummaryCube.AccountDetail.Fields.BillingAddress:CORE","false","true"
"ACE.ALM.ApplicationSettings.ACECubes.SummaryCube.AccountDetail.Fields.BillingAddress:CORE:DataField","DataField","ACE.ALM.ApplicationSettings.ACECubes.SummaryCube.AccountDetail.Fields.BillingAddress:CORE","false","BillingAddress"
"ACE.ALM.ApplicationSettings.ACECubes.SummaryCube.AccountDetail.Fields.BillingAddress:CORE:Handler","Handler","ACE.ALM.ApplicationSettings.ACECubes.SummaryCube.AccountDetail.Fields.BillingAddress:CORE","false","Address"
"ACE.ALM.ApplicationSettings.ACECubes.SummaryCube.AccountDetail.Fields.BillingAddress:CORE:Order","Order","ACE.ALM.ApplicationSettings.ACECubes.SummaryCube.AccountDetail.Fields.BillingAddress:CORE","false","0"
"ACE.ALM.ApplicationSettings.ACECubes.SummaryCube.AccountDetail.Fields.BillingAddress:CORE:Section","Section","ACE.ALM.ApplicationSettings.ACECubes.SummaryCube.AccountDetail.Fields.BillingAddress:CORE","false","4"
"ACE.ALM.ApplicationSettings.ACECubes.SummaryCube.AccountDetail.Fields.BillingAddress:CORE:SecurityField","SecurityField","ACE.ALM.ApplicationSettings.ACECubes.SummaryCube.AccountDetail.Fields.BillingAddress:CORE","false","BillingStreet"
"ACE.ALM.ApplicationSettings.ACECubes.SummaryCube.AccountDetail.Fields.Logo:CORE:AdditionalClassNames","AdditionalClassNames","ACE.ALM.ApplicationSettings.ACECubes.SummaryCube.AccountDetail.Fields.Logo:CORE","false","headerAccountLogoContainer accountLogo"
"ACE.ALM.ApplicationSettings.ACECubes.SummaryCube.AccountDetail.Fields.Logo:CORE:DataField","DataField","ACE.ALM.ApplicationSettings.ACECubes.SummaryCube.AccountDetail.Fields.Logo:CORE","false","T1C_Base__Logo__c"
"ACE.ALM.ApplicationSettings.ACECubes.SummaryCube.AccountDetail.Fields.Logo:CORE:Handler","Handler","ACE.ALM.ApplicationSettings.ACECubes.SummaryCube.AccountDetail.Fields.Logo:CORE","false","Image"
"ACE.ALM.ApplicationSettings.ACECubes.SummaryCube.AccountDetail.Fields.Logo:CORE:Order","Order","ACE.ALM.ApplicationSettings.ACECubes.SummaryCube.AccountDetail.Fields.Logo:CORE","false","10"
"ACE.ALM.ApplicationSettings.ACECubes.SummaryCube.AccountDetail.Fields.Name:CORE:DataField","DataField","ACE.ALM.ApplicationSettings.ACECubes.SummaryCube.AccountDetail.Fields.Name:CORE","false","Name"
"ACE.ALM.ApplicationSettings.ACECubes.SummaryCube.AccountDetail.Fields.Name:CORE:Handler","Handler","ACE.ALM.ApplicationSettings.ACECubes.SummaryCube.AccountDetail.Fields.Name:CORE","false","AccountNameHeader"
"ACE.ALM.ApplicationSettings.ACECubes.SummaryCube.AccountDetail.Fields.Name:CORE:Order","Order","ACE.ALM.ApplicationSettings.ACECubes.SummaryCube.AccountDetail.Fields.Name:CORE","false","0"
"ACE.ALM.ApplicationSettings.ACECubes.SummaryCube.AccountDetail.Fields.Name:CORE:Section","Section","ACE.ALM.ApplicationSettings.ACECubes.SummaryCube.AccountDetail.Fields.Name:CORE","false","0"
"ACE.ALM.ApplicationSettings.ACECubes.SummaryCube.AccountDetail.Fields.Tier:CORE:DataField","DataField","ACE.ALM.ApplicationSettings.ACECubes.SummaryCube.AccountDetail.Fields.Tier:CORE","false","T1C_Base__Tier__c"
"ACE.ALM.ApplicationSettings.ACECubes.SummaryCube.AccountDetail.Fields.Tier:CORE:Handler","Handler","ACE.ALM.ApplicationSettings.ACECubes.SummaryCube.AccountDetail.Fields.Tier:CORE","false","Picklist"
"ACE.ALM.ApplicationSettings.ACECubes.SummaryCube.AccountDetail.Fields.Tier:CORE:Order","Order","ACE.ALM.ApplicationSettings.ACECubes.SummaryCube.AccountDetail.Fields.Tier:CORE","false","2"
"ACE.ALM.ApplicationSettings.ACECubes.SummaryCube.AccountDetail.Fields.Tier:CORE:Section","Section","ACE.ALM.ApplicationSettings.ACECubes.SummaryCube.AccountDetail.Fields.Tier:CORE","false","2"
"ACE.ALM.ApplicationSettings.ACECubes.SummaryCube.AccountDetail.Lookups.Employee:CORE:AdditionalWhereClause","AdditionalWhereClause","ACE.ALM.ApplicationSettings.ACECubes.SummaryCube.AccountDetail.Lookups.Employee:CORE","false","T1C_Base__Inactive__c = false"
"ACE.ALM.ApplicationSettings.ACECubes.SummaryCube.AccountDetail.Lookups.Employee:CORE:NameField","NameField","ACE.ALM.ApplicationSettings.ACECubes.SummaryCube.AccountDetail.Lookups.Employee:CORE","false","Name"
"ACE.ALM.ApplicationSettings.ACECubes.SummaryCube.AccountDetail.Lookups.Employee:CORE:SearchFields","SearchFields","ACE.ALM.ApplicationSettings.ACECubes.SummaryCube.AccountDetail.Lookups.Employee:CORE","false","Name,T1C_Base__First_Name__c"
"ACE.ALM.ApplicationSettings.ACECubes.SummaryCube.AccountDetail.Lookups.Employee:CORE:SObjectName","SObjectName","ACE.ALM.ApplicationSettings.ACECubes.SummaryCube.AccountDetail.Lookups.Employee:CORE","false","T1C_Base__Employee__c"
"ACE.ALM.ApplicationSettings.ACECubes.SummaryCube.AccountDetail.Lookups.User:CORE:AdditionalWhereClause","AdditionalWhereClause","ACE.ALM.ApplicationSettings.ACECubes.SummaryCube.AccountDetail.Lookups.User:CORE","false","IsActive = true"
"ACE.ALM.ApplicationSettings.ACECubes.SummaryCube.AccountDetail.Lookups.User:CORE:LookupSearchFields","LookupSearchFields","ACE.ALM.ApplicationSettings.ACECubes.SummaryCube.AccountDetail.Lookups.User:CORE","false","Name"
"ACE.ALM.ApplicationSettings.ACECubes.SummaryCube.AccountDetail.Lookups.User:CORE:SearchFields","SearchFields","ACE.ALM.ApplicationSettings.ACECubes.SummaryCube.AccountDetail.Lookups.User:CORE","false","Name"
"ACE.ALM.ApplicationSettings.ACECubes.SummaryCube.AccountDetail.Lookups.User:CORE:SObjectName","SObjectName","ACE.ALM.ApplicationSettings.ACECubes.SummaryCube.AccountDetail.Lookups.User:CORE","false","User"
"ACE.ALM.ApplicationSettings.ACECubes.SummaryCube.AccountDetail.SectionConfig.MifidSection:CORE:AdditionalClassNames","AdditionalClassNames","ACE.ALM.ApplicationSettings.ACECubes.SummaryCube.AccountDetail.SectionConfig.MifidSection:CORE","false","singleColumn"
"ACE.ALM.ApplicationSettings.ACECubes.SummaryCube.AccountDetail.SectionConfig.MifidSection:CORE:Section","Section","ACE.ALM.ApplicationSettings.ACECubes.SummaryCube.AccountDetail.SectionConfig.MifidSection:CORE","false","1"
"ACE.ALM.ApplicationSettings.ACECubes.SummaryCube.ContactDetail:CORE:ObjectName","ObjectName","ACE.ALM.ApplicationSettings.ACECubes.SummaryCube.ContactDetail:CORE","false","Contact"
"ACE.ALM.ApplicationSettings.ACECubes.SummaryCube.ContactDetail:CORE:Order","Order","ACE.ALM.ApplicationSettings.ACECubes.SummaryCube.ContactDetail:CORE","false","2"
"ACE.ALM.ApplicationSettings.ACECubes.SummaryCube.ContactDetail:CORE:RelatedAccountFieldForAddresses","RelatedAccountFieldForAddresses","ACE.ALM.ApplicationSettings.ACECubes.SummaryCube.ContactDetail:CORE","false","AccountId"
"ACE.ALM.ApplicationSettings.ACECubes.SummaryCube.ContactDetail.Buttons.Email:CORE:ClassNames","ClassNames","ACE.ALM.ApplicationSettings.ACECubes.SummaryCube.ContactDetail.Buttons.Email:CORE","false","emailButton"
"ACE.ALM.ApplicationSettings.ACECubes.SummaryCube.ContactDetail.Buttons.Email:CORE:DataField","DataField","ACE.ALM.ApplicationSettings.ACECubes.SummaryCube.ContactDetail.Buttons.Email:CORE","false","contact.Email"
"ACE.ALM.ApplicationSettings.ACECubes.SummaryCube.ContactDetail.Buttons.Email:CORE:Label","Label","ACE.ALM.ApplicationSettings.ACECubes.SummaryCube.ContactDetail.Buttons.Email:CORE","false","Email"
"ACE.ALM.ApplicationSettings.ACECubes.SummaryCube.ContactDetail.Buttons.Email:CORE:Order","Order","ACE.ALM.ApplicationSettings.ACECubes.SummaryCube.ContactDetail.Buttons.Email:CORE","false","0"
"ACE.ALM.ApplicationSettings.ACECubes.SummaryCube.ContactDetail.Buttons.Email:CORE:URLPrefix","URLPrefix","ACE.ALM.ApplicationSettings.ACECubes.SummaryCube.ContactDetail.Buttons.Email:CORE","false","mailto:"
"ACE.ALM.ApplicationSettings.ACECubes.SummaryCube.ContactDetail.Buttons.Email:CORE:URLTarget","URLTarget","ACE.ALM.ApplicationSettings.ACECubes.SummaryCube.ContactDetail.Buttons.Email:CORE","false",""
"ACE.ALM.ApplicationSettings.ACECubes.SummaryCube.ContactDetail.Fields.ContactName:CORE:DataField","DataField","ACE.ALM.ApplicationSettings.ACECubes.SummaryCube.ContactDetail.Fields.ContactName:CORE","false","Name"
"ACE.ALM.ApplicationSettings.ACECubes.SummaryCube.ContactDetail.Fields.ContactName:CORE:Handler","Handler","ACE.ALM.ApplicationSettings.ACECubes.SummaryCube.ContactDetail.Fields.ContactName:CORE","false","ContactNameHeader"
"ACE.ALM.ApplicationSettings.ACECubes.SummaryCube.ContactDetail.Fields.ContactName:CORE:SecurityField","SecurityField","ACE.ALM.ApplicationSettings.ACECubes.SummaryCube.ContactDetail.Fields.ContactName:CORE","false","LastName"
"ACE.ALM.ApplicationSettings.ACECubes.SummaryCube.ContactDetail.Fields.Email:CORE:DataField","DataField","ACE.ALM.ApplicationSettings.ACECubes.SummaryCube.ContactDetail.Fields.Email:CORE","false","Email"
"ACE.ALM.ApplicationSettings.ACECubes.SummaryCube.ContactDetail.Fields.Email:CORE:Handler","Handler","ACE.ALM.ApplicationSettings.ACECubes.SummaryCube.ContactDetail.Fields.Email:CORE","false","HeaderItem"
"ACE.ALM.ApplicationSettings.ACECubes.SummaryCube.ContactDetail.Fields.Email:CORE:Order","Order","ACE.ALM.ApplicationSettings.ACECubes.SummaryCube.ContactDetail.Fields.Email:CORE","false","3"
"ACE.ALM.ApplicationSettings.ACECubes.SummaryCube.ContactDetail.Fields.JobFunction:CORE:DataField","DataField","ACE.ALM.ApplicationSettings.ACECubes.SummaryCube.ContactDetail.Fields.JobFunction:CORE","false","T1C_Base__Job_Function__c"
"ACE.ALM.ApplicationSettings.ACECubes.SummaryCube.ContactDetail.Fields.JobFunction:CORE:Handler","Handler","ACE.ALM.ApplicationSettings.ACECubes.SummaryCube.ContactDetail.Fields.JobFunction:CORE","false","MultiSelect"
"ACE.ALM.ApplicationSettings.ACECubes.SummaryCube.ContactDetail.Fields.JobFunction:CORE:MultiSelectMode","MultiSelectMode","ACE.ALM.ApplicationSettings.ACECubes.SummaryCube.ContactDetail.Fields.JobFunction:CORE","false","list"
"ACE.ALM.ApplicationSettings.ACECubes.SummaryCube.ContactDetail.Fields.JobFunction:CORE:Order","Order","ACE.ALM.ApplicationSettings.ACECubes.SummaryCube.ContactDetail.Fields.JobFunction:CORE","false","2"
"ACE.ALM.ApplicationSettings.ACECubes.SummaryCube.ContactDetail.Fields.JobFunction:CORE:Section","Section","ACE.ALM.ApplicationSettings.ACECubes.SummaryCube.ContactDetail.Fields.JobFunction:CORE","false","2"
"ACE.ALM.ApplicationSettings.ACECubes.SummaryCube.ContactDetail.Fields.MailingAddress:CORE:AddressType","AddressType","ACE.ALM.ApplicationSettings.ACECubes.SummaryCube.ContactDetail.Fields.MailingAddress:CORE","false","Mailing"
"ACE.ALM.ApplicationSettings.ACECubes.SummaryCube.ContactDetail.Fields.MailingAddress:CORE:ClearAddressFieldsOnNull","ClearAddressFieldsOnNull","ACE.ALM.ApplicationSettings.ACECubes.SummaryCube.ContactDetail.Fields.MailingAddress:CORE","false","TRUE"
"ACE.ALM.ApplicationSettings.ACECubes.SummaryCube.ContactDetail.Fields.MailingAddress:CORE:DataField","DataField","ACE.ALM.ApplicationSettings.ACECubes.SummaryCube.ContactDetail.Fields.MailingAddress:CORE","false","MailingAddress"
"ACE.ALM.ApplicationSettings.ACECubes.SummaryCube.ContactDetail.Fields.MailingAddress:CORE:Handler","Handler","ACE.ALM.ApplicationSettings.ACECubes.SummaryCube.ContactDetail.Fields.MailingAddress:CORE","false","Address"
"ACE.ALM.ApplicationSettings.ACECubes.SummaryCube.ContactDetail.Fields.MailingAddress:CORE:Section","Section","ACE.ALM.ApplicationSettings.ACECubes.SummaryCube.ContactDetail.Fields.MailingAddress:CORE","false","4"
"ACE.ALM.ApplicationSettings.ACECubes.SummaryCube.ContactDetail.Fields.MailingAddress:CORE:SecurityField","SecurityField","ACE.ALM.ApplicationSettings.ACECubes.SummaryCube.ContactDetail.Fields.MailingAddress:CORE","false","MailingStreet"
"ACE.ALM.ApplicationSettings.ACECubes.SummaryCube.ContactDetail.Fields.Phone:CORE:DataField","DataField","ACE.ALM.ApplicationSettings.ACECubes.SummaryCube.ContactDetail.Fields.Phone:CORE","false","Phone"
"ACE.ALM.ApplicationSettings.ACECubes.SummaryCube.ContactDetail.Fields.Phone:CORE:Handler","Handler","ACE.ALM.ApplicationSettings.ACECubes.SummaryCube.ContactDetail.Fields.Phone:CORE","false","HeaderItem"
"ACE.ALM.ApplicationSettings.ACECubes.SummaryCube.ContactDetail.Fields.Phone:CORE:Order","Order","ACE.ALM.ApplicationSettings.ACECubes.SummaryCube.ContactDetail.Fields.Phone:CORE","false","1"
"ACE.ALM.ApplicationSettings.ACECubes.SummaryCube.ContactDetail.Fields.Photo:CORE:AdditionalClassNames","AdditionalClassNames","ACE.ALM.ApplicationSettings.ACECubes.SummaryCube.ContactDetail.Fields.Photo:CORE","false","userImageContainer userImage"
"ACE.ALM.ApplicationSettings.ACECubes.SummaryCube.ContactDetail.Fields.Photo:CORE:DataField","DataField","ACE.ALM.ApplicationSettings.ACECubes.SummaryCube.ContactDetail.Fields.Photo:CORE","false","T1C_Base__Photo__c"
"ACE.ALM.ApplicationSettings.ACECubes.SummaryCube.ContactDetail.Fields.Photo:CORE:Handler","Handler","ACE.ALM.ApplicationSettings.ACECubes.SummaryCube.ContactDetail.Fields.Photo:CORE","false","Image"
"ACE.ALM.ApplicationSettings.ACECubes.SummaryCube.ContactDetail.Fields.Photo:CORE:Order","Order","ACE.ALM.ApplicationSettings.ACECubes.SummaryCube.ContactDetail.Fields.Photo:CORE","false","10"
"ACE.ALM.ApplicationSettings.ACECubes.SummaryCube.CoverageConfig:CORE:AdditionalBCC","AdditionalBCC","ACE.ALM.ApplicationSettings.ACECubes.SummaryCube.CoverageConfig:CORE","false",""
"ACE.ALM.ApplicationSettings.ACECubes.SummaryCube.CoverageConfig:CORE:AdditionalCC","AdditionalCC","ACE.ALM.ApplicationSettings.ACECubes.SummaryCube.CoverageConfig:CORE","false",""
"ACE.ALM.ApplicationSettings.ACECubes.SummaryCube.CoverageConfig:CORE:AdditionalTo","AdditionalTo","ACE.ALM.ApplicationSettings.ACECubes.SummaryCube.CoverageConfig:CORE","false",""
"ACE.ALM.ApplicationSettings.ACECubes.SummaryCube.CoverageConfig:CORE:EmailLinkMaxLength","EmailLinkMaxLength","ACE.ALM.ApplicationSettings.ACECubes.SummaryCube.CoverageConfig:CORE","false","1000"
"ACE.ALM.ApplicationSettings.ACECubes.SummaryCube.CoverageConfig:CORE:EmailSubject","EmailSubject","ACE.ALM.ApplicationSettings.ACECubes.SummaryCube.CoverageConfig:CORE","false",""
"ACE.ALM.ApplicationSettings.ACECubes.SummaryCube.CoverageConfig:CORE:ShowEmailSettings","ShowEmailSettings","ACE.ALM.ApplicationSettings.ACECubes.SummaryCube.CoverageConfig:CORE","false","TRUE"
"ACE.ALM.ApplicationSettings.ACECubes.SummaryCube.CoverageConfig:CORE:URLPrefix","URLPrefix","ACE.ALM.ApplicationSettings.ACECubes.SummaryCube.CoverageConfig:CORE","false","/"
"ACE.ALM.ApplicationSettings.ACECubes.SummaryCube.CoverageConfig:CORE:URLSuffix","URLSuffix","ACE.ALM.ApplicationSettings.ACECubes.SummaryCube.CoverageConfig:CORE","false","?isdtp=vw"
"ACE.ALM.ApplicationSettings.ACECubes.SummaryCube.CoverageConfig.AccountCoverageColumns:CORE:GetAdditionalInfo","GetAdditionalInfo","ACE.ALM.ApplicationSettings.ACECubes.SummaryCube.CoverageConfig.AccountCoverageColumns:CORE","false","TRUE"
"ACE.ALM.ApplicationSettings.ACECubes.SummaryCube.CoverageConfig.AccountCoverageColumns:CORE:SortAscending","SortAscending","ACE.ALM.ApplicationSettings.ACECubes.SummaryCube.CoverageConfig.AccountCoverageColumns:CORE","false","TRUE"
"ACE.ALM.ApplicationSettings.ACECubes.SummaryCube.CoverageConfig.AccountCoverageColumns:CORE:SortBy","SortBy","ACE.ALM.ApplicationSettings.ACECubes.SummaryCube.CoverageConfig.AccountCoverageColumns:CORE","false","T1C_Base__Account_Coverage__r.T1C_Base__Employee__r.Name"
"ACE.ALM.ApplicationSettings.ACECubes.SummaryCube.CoverageConfig.AccountCoverageColumns.Division:CORE:DataField","DataField","ACE.ALM.ApplicationSettings.ACECubes.SummaryCube.CoverageConfig.AccountCoverageColumns.Division:CORE","true","T1C_Base__Region__r.Name"
"ACE.ALM.ApplicationSettings.ACECubes.SummaryCube.CoverageConfig.AccountCoverageColumns.Division:CORE:Label","Label","ACE.ALM.ApplicationSettings.ACECubes.SummaryCube.CoverageConfig.AccountCoverageColumns.Division:CORE","true","{Locale.REGION_LABEL}"
"ACE.ALM.ApplicationSettings.ACECubes.SummaryCube.CoverageConfig.AccountCoverageColumns.Division:CORE:Order","Order","ACE.ALM.ApplicationSettings.ACECubes.SummaryCube.CoverageConfig.AccountCoverageColumns.Division:CORE","true","5"
"ACE.ALM.ApplicationSettings.ACECubes.SummaryCube.CoverageConfig.AccountCoverageColumns.Employee:CORE:DataField","DataField","ACE.ALM.ApplicationSettings.ACECubes.SummaryCube.CoverageConfig.AccountCoverageColumns.Employee:CORE","true","T1C_Base__Account_Coverage__r.T1C_Base__Employee__r.Name"
"ACE.ALM.ApplicationSettings.ACECubes.SummaryCube.CoverageConfig.AccountCoverageColumns.Employee:CORE:Formatter","Formatter","ACE.ALM.ApplicationSettings.ACECubes.SummaryCube.CoverageConfig.AccountCoverageColumns.Employee:CORE","true","coverageGridEmailFormatter"
"ACE.ALM.ApplicationSettings.ACECubes.SummaryCube.CoverageConfig.AccountCoverageColumns.Employee:CORE:Label","Label","ACE.ALM.ApplicationSettings.ACECubes.SummaryCube.CoverageConfig.AccountCoverageColumns.Employee:CORE","true","{Locale.EMPLOYEE_LABEL}"
"ACE.ALM.ApplicationSettings.ACECubes.SummaryCube.CoverageConfig.AccountCoverageColumns.Employee:CORE:LinkField","LinkField","ACE.ALM.ApplicationSettings.ACECubes.SummaryCube.CoverageConfig.AccountCoverageColumns.Employee:CORE","true","T1C_Base__Account_Coverage__r.T1C_Base__Employee__r.T1C_Base__Email__c"
"ACE.ALM.ApplicationSettings.ACECubes.SummaryCube.CoverageConfig.AccountCoverageColumns.Employee:CORE:Order","Order","ACE.ALM.ApplicationSettings.ACECubes.SummaryCube.CoverageConfig.AccountCoverageColumns.Employee:CORE","true","1"
"ACE.ALM.ApplicationSettings.ACECubes.SummaryCube.CoverageConfig.AccountCoverageColumns.LOB:CORE:DataField","DataField","ACE.ALM.ApplicationSettings.ACECubes.SummaryCube.CoverageConfig.AccountCoverageColumns.LOB:CORE","true","T1C_Base__Account_Coverage__r.T1C_Base__Employee__r.T1C_Base__LOB__r.Name"
"ACE.ALM.ApplicationSettings.ACECubes.SummaryCube.CoverageConfig.AccountCoverageColumns.LOB:CORE:Label","Label","ACE.ALM.ApplicationSettings.ACECubes.SummaryCube.CoverageConfig.AccountCoverageColumns.LOB:CORE","true","{Locale.LINE_OF_BUSSINESS_LABEL}"
"ACE.ALM.ApplicationSettings.ACECubes.SummaryCube.CoverageConfig.AccountCoverageColumns.LOB:CORE:Order","Order","ACE.ALM.ApplicationSettings.ACECubes.SummaryCube.CoverageConfig.AccountCoverageColumns.LOB:CORE","true","2"
"ACE.ALM.ApplicationSettings.ACECubes.SummaryCube.CoverageConfig.AccountCoverageColumns.Role:CORE:DataField","DataField","ACE.ALM.ApplicationSettings.ACECubes.SummaryCube.CoverageConfig.AccountCoverageColumns.Role:CORE","true","T1C_Base__Account_Coverage__r.T1C_Base__Role__c"
"ACE.ALM.ApplicationSettings.ACECubes.SummaryCube.CoverageConfig.AccountCoverageColumns.Role:CORE:Formatter","Formatter","ACE.ALM.ApplicationSettings.ACECubes.SummaryCube.CoverageConfig.AccountCoverageColumns.Role:CORE","true","gridLinkFormatter"
"ACE.ALM.ApplicationSettings.ACECubes.SummaryCube.CoverageConfig.AccountCoverageColumns.Role:CORE:Label","Label","ACE.ALM.ApplicationSettings.ACECubes.SummaryCube.CoverageConfig.AccountCoverageColumns.Role:CORE","true","{Locale.ROLE_LABEL}"
"ACE.ALM.ApplicationSettings.ACECubes.SummaryCube.CoverageConfig.AccountCoverageColumns.Role:CORE:LinkField","LinkField","ACE.ALM.ApplicationSettings.ACECubes.SummaryCube.CoverageConfig.AccountCoverageColumns.Role:CORE","true","Id"
"ACE.ALM.ApplicationSettings.ACECubes.SummaryCube.CoverageConfig.AccountCoverageColumns.Role:CORE:Order","Order","ACE.ALM.ApplicationSettings.ACECubes.SummaryCube.CoverageConfig.AccountCoverageColumns.Role:CORE","true","3"
"ACE.ALM.ApplicationSettings.ACECubes.SummaryCube.CoverageConfig.Buttons.EmailCoverageTeams:CORE:Action","Action","ACE.ALM.ApplicationSettings.ACECubes.SummaryCube.CoverageConfig.Buttons.EmailCoverageTeams:CORE","false","sendCoverageEmailButton"
"ACE.ALM.ApplicationSettings.ACECubes.SummaryCube.CoverageConfig.Buttons.EmailCoverageTeams:CORE:ClassNames","ClassNames","ACE.ALM.ApplicationSettings.ACECubes.SummaryCube.CoverageConfig.Buttons.EmailCoverageTeams:CORE","false","emailButton"
"ACE.ALM.ApplicationSettings.ACECubes.SummaryCube.CoverageConfig.Buttons.EmailCoverageTeams:CORE:DataField","DataField","ACE.ALM.ApplicationSettings.ACECubes.SummaryCube.CoverageConfig.Buttons.EmailCoverageTeams:CORE","false","coverageTeamEmails"
"ACE.ALM.ApplicationSettings.ACECubes.SummaryCube.CoverageConfig.Buttons.EmailCoverageTeams:CORE:Enabled","Enabled","ACE.ALM.ApplicationSettings.ACECubes.SummaryCube.CoverageConfig.Buttons.EmailCoverageTeams:CORE","false","TRUE"
"ACE.ALM.ApplicationSettings.ACECubes.SummaryCube.CoverageConfig.Buttons.EmailCoverageTeams:CORE:Label","Label","ACE.ALM.ApplicationSettings.ACECubes.SummaryCube.CoverageConfig.Buttons.EmailCoverageTeams:CORE","false","{Locale.EMAIL_COVERAGE_TEAM}"
"ACE.ALM.ApplicationSettings.ACECubes.SummaryCube.CoverageConfig.Buttons.EmailCoverageTeams:CORE:Order","Order","ACE.ALM.ApplicationSettings.ACECubes.SummaryCube.CoverageConfig.Buttons.EmailCoverageTeams:CORE","false","2"
"ACE.ALM.ApplicationSettings.ACECubes.SummaryCube.CoverageConfig.Buttons.EmailCoverageTeams:CORE:Type","Type","ACE.ALM.ApplicationSettings.ACECubes.SummaryCube.CoverageConfig.Buttons.EmailCoverageTeams:CORE","false","Event"
"ACE.ALM.ApplicationSettings.ACECubes.SummaryCube.CoverageConfig.ContactCoverageColumns.Employee:CORE:DataField","DataField","ACE.ALM.ApplicationSettings.ACECubes.SummaryCube.CoverageConfig.ContactCoverageColumns.Employee:CORE","true","T1C_Base__Employee__r.Name"
"ACE.ALM.ApplicationSettings.ACECubes.SummaryCube.CoverageConfig.ContactCoverageColumns.Employee:CORE:Formatter","Formatter","ACE.ALM.ApplicationSettings.ACECubes.SummaryCube.CoverageConfig.ContactCoverageColumns.Employee:CORE","true","coverageGridEmailFormatter"
"ACE.ALM.ApplicationSettings.ACECubes.SummaryCube.CoverageConfig.ContactCoverageColumns.Employee:CORE:Label","Label","ACE.ALM.ApplicationSettings.ACECubes.SummaryCube.CoverageConfig.ContactCoverageColumns.Employee:CORE","true","{Locale.EMPLOYEE_LABEL}"
"ACE.ALM.ApplicationSettings.ACECubes.SummaryCube.CoverageConfig.ContactCoverageColumns.Employee:CORE:LinkField","LinkField","ACE.ALM.ApplicationSettings.ACECubes.SummaryCube.CoverageConfig.ContactCoverageColumns.Employee:CORE","true","T1C_Base__Employee__r.T1C_Base__Email__c"
"ACE.ALM.ApplicationSettings.ACECubes.SummaryCube.CoverageConfig.ContactCoverageColumns.Employee:CORE:Order","Order","ACE.ALM.ApplicationSettings.ACECubes.SummaryCube.CoverageConfig.ContactCoverageColumns.Employee:CORE","true","1"
"ACE.ALM.ApplicationSettings.ACECubes.SummaryCube.CoverageConfig.ContactCoverageColumns.LOB:CORE:DataField","DataField","ACE.ALM.ApplicationSettings.ACECubes.SummaryCube.CoverageConfig.ContactCoverageColumns.LOB:CORE","true","T1C_Base__Employee__r.T1C_Base__LOB__r.Name"
"ACE.ALM.ApplicationSettings.ACECubes.SummaryCube.CoverageConfig.ContactCoverageColumns.LOB:CORE:Label","Label","ACE.ALM.ApplicationSettings.ACECubes.SummaryCube.CoverageConfig.ContactCoverageColumns.LOB:CORE","true","{Locale.LINE_OF_BUSSINESS_LABEL}"
"ACE.ALM.ApplicationSettings.ACECubes.SummaryCube.CoverageConfig.ContactCoverageColumns.LOB:CORE:Order","Order","ACE.ALM.ApplicationSettings.ACECubes.SummaryCube.CoverageConfig.ContactCoverageColumns.LOB:CORE","true","2"
"ACE.ALM.ApplicationSettings.ACECubes.SummaryCube.CoverageConfig.ContactCoverageColumns.Role:CORE:DataField","DataField","ACE.ALM.ApplicationSettings.ACECubes.SummaryCube.CoverageConfig.ContactCoverageColumns.Role:CORE","true","T1C_Base__Role__c"
"ACE.ALM.ApplicationSettings.ACECubes.SummaryCube.CoverageConfig.ContactCoverageColumns.Role:CORE:Formatter","Formatter","ACE.ALM.ApplicationSettings.ACECubes.SummaryCube.CoverageConfig.ContactCoverageColumns.Role:CORE","false","gridLinkFormatter"
"ACE.ALM.ApplicationSettings.ACECubes.SummaryCube.CoverageConfig.ContactCoverageColumns.Role:CORE:Label","Label","ACE.ALM.ApplicationSettings.ACECubes.SummaryCube.CoverageConfig.ContactCoverageColumns.Role:CORE","true","{Locale.ROLE_LABEL}"
"ACE.ALM.ApplicationSettings.ACECubes.SummaryCube.CoverageConfig.ContactCoverageColumns.Role:CORE:LinkField","LinkField","ACE.ALM.ApplicationSettings.ACECubes.SummaryCube.CoverageConfig.ContactCoverageColumns.Role:CORE","false","Id"
"ACE.ALM.ApplicationSettings.ACECubes.SummaryCube.CoverageConfig.ContactCoverageColumns.Role:CORE:Order","Order","ACE.ALM.ApplicationSettings.ACECubes.SummaryCube.CoverageConfig.ContactCoverageColumns.Role:CORE","true","3"
"ACE.ALM.ApplicationSettings.ACECubes.SummaryCube.CoverageConfig.Filters.AccountCoverageRole:CORE:ApplyTo","ApplyTo","ACE.ALM.ApplicationSettings.ACECubes.SummaryCube.CoverageConfig.Filters.AccountCoverageRole:CORE","false","account"
"ACE.ALM.ApplicationSettings.ACECubes.SummaryCube.CoverageConfig.Filters.AccountCoverageRole:CORE:DataField","DataField","ACE.ALM.ApplicationSettings.ACECubes.SummaryCube.CoverageConfig.Filters.AccountCoverageRole:CORE","false","T1C_Base__Account_Coverage__r.T1C_Base__Role__c"
"ACE.ALM.ApplicationSettings.ACECubes.SummaryCube.CoverageConfig.Filters.AccountCoverageRole:CORE:Enabled","Enabled","ACE.ALM.ApplicationSettings.ACECubes.SummaryCube.CoverageConfig.Filters.AccountCoverageRole:CORE","false","TRUE"
"ACE.ALM.ApplicationSettings.ACECubes.SummaryCube.CoverageConfig.Filters.AccountCoverageRole:CORE:Handler","Handler","ACE.ALM.ApplicationSettings.ACECubes.SummaryCube.CoverageConfig.Filters.AccountCoverageRole:CORE","false","Filter"
"ACE.ALM.ApplicationSettings.ACECubes.SummaryCube.CoverageConfig.Filters.AccountCoverageRole:CORE:Label","Label","ACE.ALM.ApplicationSettings.ACECubes.SummaryCube.CoverageConfig.Filters.AccountCoverageRole:CORE","false","{Locale.SELECT_LABEL}
{Locale.ACCOUNT_COVERAGE_LABEL}
{Locale.ROLE_LABEL}"
"ACE.ALM.ApplicationSettings.ACECubes.SummaryCube.CoverageConfig.Filters.AccountCoverageRole:CORE:LabelField","LabelField","ACE.ALM.ApplicationSettings.ACECubes.SummaryCube.CoverageConfig.Filters.AccountCoverageRole:CORE","false","T1C_Base__Account_Coverage__r.T1C_Base__Role__c"
"ACE.ALM.ApplicationSettings.ACECubes.SummaryCube.CoverageConfig.Filters.AccountCoverageRole:CORE:Order","Order","ACE.ALM.ApplicationSettings.ACECubes.SummaryCube.CoverageConfig.Filters.AccountCoverageRole:CORE","false","3"
"ACE.ALM.ApplicationSettings.ACECubes.SummaryCube.CoverageConfig.Filters.ContactCoverageRole:CORE:ApplyTo","ApplyTo","ACE.ALM.ApplicationSettings.ACECubes.SummaryCube.CoverageConfig.Filters.ContactCoverageRole:CORE","false","contact"
"ACE.ALM.ApplicationSettings.ACECubes.SummaryCube.CoverageConfig.Filters.ContactCoverageRole:CORE:DataField","DataField","ACE.ALM.ApplicationSettings.ACECubes.SummaryCube.CoverageConfig.Filters.ContactCoverageRole:CORE","false","T1C_Base__Role__c"
"ACE.ALM.ApplicationSettings.ACECubes.SummaryCube.CoverageConfig.Filters.ContactCoverageRole:CORE:Enabled","Enabled","ACE.ALM.ApplicationSettings.ACECubes.SummaryCube.CoverageConfig.Filters.ContactCoverageRole:CORE","false","TRUE"
"ACE.ALM.ApplicationSettings.ACECubes.SummaryCube.CoverageConfig.Filters.ContactCoverageRole:CORE:Handler","Handler","ACE.ALM.ApplicationSettings.ACECubes.SummaryCube.CoverageConfig.Filters.ContactCoverageRole:CORE","false","Filter"
"ACE.ALM.ApplicationSettings.ACECubes.SummaryCube.CoverageConfig.Filters.ContactCoverageRole:CORE:Label","Label","ACE.ALM.ApplicationSettings.ACECubes.SummaryCube.CoverageConfig.Filters.ContactCoverageRole:CORE","false","{Locale.SELECT_LABEL}
{Locale.CONATCT_COVERAGE_LABEL} 
{Locale.ROLE_LABEL}"
"ACE.ALM.ApplicationSettings.ACECubes.SummaryCube.CoverageConfig.Filters.ContactCoverageRole:CORE:LabelField","LabelField","ACE.ALM.ApplicationSettings.ACECubes.SummaryCube.CoverageConfig.Filters.ContactCoverageRole:CORE","false","T1C_Base__Role__c"
"ACE.ALM.ApplicationSettings.ACECubes.SummaryCube.CoverageConfig.Filters.ContactCoverageRole:CORE:Order","Order","ACE.ALM.ApplicationSettings.ACECubes.SummaryCube.CoverageConfig.Filters.ContactCoverageRole:CORE","false","4"
"ACE.ALM.ApplicationSettings.ACECubes.SummaryCube.CoverageConfig.Filters.LOB:CORE:ApplyTo","ApplyTo","ACE.ALM.ApplicationSettings.ACECubes.SummaryCube.CoverageConfig.Filters.LOB:CORE","false","All"
"ACE.ALM.ApplicationSettings.ACECubes.SummaryCube.CoverageConfig.Filters.LOB:CORE:DataField","DataField","ACE.ALM.ApplicationSettings.ACECubes.SummaryCube.CoverageConfig.Filters.LOB:CORE","false","T1C_Base__Employee__r.T1C_Base__LOB__r.Name"
"ACE.ALM.ApplicationSettings.ACECubes.SummaryCube.CoverageConfig.Filters.LOB:CORE:Enabled","Enabled","ACE.ALM.ApplicationSettings.ACECubes.SummaryCube.CoverageConfig.Filters.LOB:CORE","false","TRUE"
"ACE.ALM.ApplicationSettings.ACECubes.SummaryCube.CoverageConfig.Filters.LOB:CORE:Label","Label","ACE.ALM.ApplicationSettings.ACECubes.SummaryCube.CoverageConfig.Filters.LOB:CORE","false","{Locale.SELECT_LABEL}	{Locale.LINE_OF_BUSSINESS_LABEL}"
"ACE.ALM.ApplicationSettings.ACECubes.SummaryCube.CoverageConfig.Filters.LOB:CORE:LabelField","LabelField","ACE.ALM.ApplicationSettings.ACECubes.SummaryCube.CoverageConfig.Filters.LOB:CORE","false","T1C_Base__Employee__r.T1C_Base__LOB__r.Name"
"ACE.ALM.ApplicationSettings.ACECubes.SummaryCube.Interests:CORE:Order","Order","ACE.ALM.ApplicationSettings.ACECubes.SummaryCube.Interests:CORE","false","6"
"ACE.ALM.ApplicationSettings.ACECubes.SummaryCube.Layout:CORE:Layout","Layout","ACE.ALM.ApplicationSettings.ACECubes.SummaryCube.Layout:CORE","false","<script src=""{Resource.SummaryCubeDetail}"" />
<script src=""{Resource.MomentTimezone}"" />
<script src=""{Resource.SummaryCubeButtons}"" />
<script src=""{Resource.SummaryCubeRelatedActivities}"" />
<script src=""{Resource.SummaryCubeCoverage}"" />
<script src=""{Resource.SummaryCubeInterests}"" />
<script src=""{Resource.SummaryCubeNavBar}"" />
<link rel=""stylesheet"" href=""{Resource.SummaryCubeStyles}"">

<div class=""cubeFaceWrapper customCubeContainer"" style=""height:calc(100% - 40px)"">
	<apex-import name=""c__SummaryCubeControllersPage""></apex-import>
	<div data-aml-properties='{
			""controllers"":
			[
				{
					""controller"": ""summary-cube:navBar"",
					""options"":
					{
						""path"" : ""ACE.ALM.ApplicationSettings.ACECubes.SummaryCube.SummaryCubeNavBar""
					}
				}
			]
		}'/>
	<div id=""sc-section-wrapper"" class=""powerCubeContent "" style=""height:100%"">		
		<div data-aml-properties='{
			""controllers"":
			[
				{
					""controller"": ""alm:SummaryCubeDetail"",
					""options"":
					{
						""fields"" : [""AccountId"",""Id""],
						""object"" : ""Account"",
						""mapsKey"" : ""AIzaSyAV0QZNL1-69Raqo9XxZTs9EBkSG1Nue24"",
						""path"" : ""ACE.ALM.ApplicationSettings.ACECubes.SummaryCube.AccountDetail""
					}
				}
			]
		}'/>
		<div data-aml-properties='{
			""controllers"":
			[
				{
					""controller"": ""alm:SummaryCubeDetail"",
					""options"":
					{
						""fields"" : [""Id""],
						""object"" : ""Contact"",
						""mapsKey"" : ""AIzaSyAV0QZNL1-69Raqo9XxZTs9EBkSG1Nue24"",
						""path"" : ""ACE.ALM.ApplicationSettings.ACECubes.SummaryCube.ContactDetail""
					}
				}
			]
		}'/>
		<div data-aml-properties='{
			""controllers"":
			[
				{
					""controller"": ""alm:SummaryCubeInterests"",
					""options"":
					{
						""path"" : ""ACE.ALM.ApplicationSettings.ACECubes.SummaryCube.Interests""
					}
				}
			]
		}'/>
		<div data-aml-properties='{
			""controllers"":
			[
				{
					""controller"": ""alm:SummaryCubeRelatedActivities"",
					""options"":
					{
						""path"" : ""ACE.ALM.ApplicationSettings.ACECubes.SummaryCube.RecentActivities"",
						""recordLimit"" : ""500""
					}
				}
			]
		}'/>
		<div data-aml-properties='{
			""controllers"":
			[
				{
					""controller"": ""alm:SummaryCubeCoverage"",
					""options"":
					{
						""path"" : ""ACE.ALM.ApplicationSettings.ACECubes.SummaryCube.CoverageConfig"",
						""recordLimit"" : ""500""
					}
				}
			]
		}'/>
	</div>
	<footer class=""cubeFaceFooter"" data-aml-properties='{""controllers"":[{""controller"":""summary-cube:buttonsFooter""}]}'/>
</div>"
"ACE.ALM.ApplicationSettings.ACECubes.SummaryCube.RecentActivities:CORE:CallReportExcludedTypes","CallReportExcludedTypes","ACE.ALM.ApplicationSettings.ACECubes.SummaryCube.RecentActivities:CORE","false",""
"ACE.ALM.ApplicationSettings.ACECubes.SummaryCube.RecentActivities:CORE:CallReportLaunchEvent","CallReportLaunchEvent","ACE.ALM.ApplicationSettings.ACECubes.SummaryCube.RecentActivities:CORE","true","showAceActivityReport?layoutPath=
ACE.ActivityReport.Layouts.InteractionReport&callReportId="
"ACE.ALM.ApplicationSettings.ACECubes.SummaryCube.RecentActivities:CORE:CallReportTypeField","CallReportTypeField","ACE.ALM.ApplicationSettings.ACECubes.SummaryCube.RecentActivities:CORE","true","T1C_Base__Interaction_Type__c"
"ACE.ALM.ApplicationSettings.ACECubes.SummaryCube.RecentActivities:CORE:EventExcludedTypes","EventExcludedTypes","ACE.ALM.ApplicationSettings.ACECubes.SummaryCube.RecentActivities:CORE","true","Call - Outbound;"
"ACE.ALM.ApplicationSettings.ACECubes.SummaryCube.RecentActivities:CORE:EventTypeField","EventTypeField","ACE.ALM.ApplicationSettings.ACECubes.SummaryCube.RecentActivities:CORE","true","T1C_Base__Interaction_Type__c"
"ACE.ALM.ApplicationSettings.ACECubes.SummaryCube.RecentActivities:CORE:MeetingLaunchEvent","MeetingLaunchEvent","ACE.ALM.ApplicationSettings.ACECubes.SummaryCube.RecentActivities:CORE","true",""
"ACE.ALM.ApplicationSettings.ACECubes.SummaryCube.RecentActivities:CORE:Order","Order","ACE.ALM.ApplicationSettings.ACECubes.SummaryCube.RecentActivities:CORE","false","3"
"ACE.ALM.ApplicationSettings.ACECubes.SummaryCube.RecentActivities:CORE:TaskExcludedTypes","TaskExcludedTypes","ACE.ALM.ApplicationSettings.ACECubes.SummaryCube.RecentActivities:CORE","true","Call - Outbound;"
"ACE.ALM.ApplicationSettings.ACECubes.SummaryCube.RecentActivities:CORE:TaskLaunchEvent","TaskLaunchEvent","ACE.ALM.ApplicationSettings.ACECubes.SummaryCube.RecentActivities:CORE","true","launchTask"
"ACE.ALM.ApplicationSettings.ACECubes.SummaryCube.RecentActivities:CORE:TaskTypeField","TaskTypeField","ACE.ALM.ApplicationSettings.ACECubes.SummaryCube.RecentActivities:CORE","true","T1C_Base__Interaction_Type__c"
"ACE.ALM.ApplicationSettings.ACECubes.SummaryCube.RecentActivities:CORE:ViewRecords","ViewRecords","ACE.ALM.ApplicationSettings.ACECubes.SummaryCube.RecentActivities:CORE","true","TRUE"
"ACE.ALM.ApplicationSettings.ACECubes.SummaryCube.RecentActivities.Buttons.LogInteraction:CORE:Action","Action","ACE.ALM.ApplicationSettings.ACECubes.SummaryCube.RecentActivities.Buttons.LogInteraction:CORE","false","showLogAnInteraction"
"ACE.ALM.ApplicationSettings.ACECubes.SummaryCube.RecentActivities.Buttons.LogInteraction:CORE:ClassNames","ClassNames","ACE.ALM.ApplicationSettings.ACECubes.SummaryCube.RecentActivities.Buttons.LogInteraction:CORE","false","logInteraction"
"ACE.ALM.ApplicationSettings.ACECubes.SummaryCube.RecentActivities.Buttons.LogInteraction:CORE:DataField","DataField","ACE.ALM.ApplicationSettings.ACECubes.SummaryCube.RecentActivities.Buttons.LogInteraction:CORE","false","contact.Id"
"ACE.ALM.ApplicationSettings.ACECubes.SummaryCube.RecentActivities.Buttons.LogInteraction:CORE:Label","Label","ACE.ALM.ApplicationSettings.ACECubes.SummaryCube.RecentActivities.Buttons.LogInteraction:CORE","false","Log Interaction"
"ACE.ALM.ApplicationSettings.ACECubes.SummaryCube.RecentActivities.Buttons.LogInteraction:CORE:Order","Order","ACE.ALM.ApplicationSettings.ACECubes.SummaryCube.RecentActivities.Buttons.LogInteraction:CORE","false","1"
"ACE.ALM.ApplicationSettings.ACECubes.SummaryCube.RecentActivities.Buttons.LogInteraction:CORE:Type","Type","ACE.ALM.ApplicationSettings.ACECubes.SummaryCube.RecentActivities.Buttons.LogInteraction:CORE","false","Event"
"ACE.ALM.ApplicationSettings.ACECubes.SummaryCube.RecentActivities.Columns.Date:CORE:DataField","DataField","ACE.ALM.ApplicationSettings.ACECubes.SummaryCube.RecentActivities.Columns.Date:CORE","true","activityDate"
"ACE.ALM.ApplicationSettings.ACECubes.SummaryCube.RecentActivities.Columns.Date:CORE:Formatter","Formatter","ACE.ALM.ApplicationSettings.ACECubes.SummaryCube.RecentActivities.Columns.Date:CORE","true","dateFormatter"
"ACE.ALM.ApplicationSettings.ACECubes.SummaryCube.RecentActivities.Columns.Date:CORE:Label","Label","ACE.ALM.ApplicationSettings.ACECubes.SummaryCube.RecentActivities.Columns.Date:CORE","true","{Locale.DATE_LABEL}"
"ACE.ALM.ApplicationSettings.ACECubes.SummaryCube.RecentActivities.Columns.Date:CORE:Order","Order","ACE.ALM.ApplicationSettings.ACECubes.SummaryCube.RecentActivities.Columns.Date:CORE","true","2"
"ACE.ALM.ApplicationSettings.ACECubes.SummaryCube.RecentActivities.Columns.Date:CORE:Type","Type","ACE.ALM.ApplicationSettings.ACECubes.SummaryCube.RecentActivities.Columns.Date:CORE","false","Date"
"ACE.ALM.ApplicationSettings.ACECubes.SummaryCube.RecentActivities.Columns.Employee:CORE:DataField","DataField","ACE.ALM.ApplicationSettings.ACECubes.SummaryCube.RecentActivities.Columns.Employee:CORE","true","owner"
"ACE.ALM.ApplicationSettings.ACECubes.SummaryCube.RecentActivities.Columns.Employee:CORE:Label","Label","ACE.ALM.ApplicationSettings.ACECubes.SummaryCube.RecentActivities.Columns.Employee:CORE","true","{Locale.EMPLOYEE_LABEL}"
"ACE.ALM.ApplicationSettings.ACECubes.SummaryCube.RecentActivities.Columns.Employee:CORE:Order","Order","ACE.ALM.ApplicationSettings.ACECubes.SummaryCube.RecentActivities.Columns.Employee:CORE","true","1"
"ACE.ALM.ApplicationSettings.ACECubes.SummaryCube.RecentActivities.Columns.ObjectType:CORE:DataField","DataField","ACE.ALM.ApplicationSettings.ACECubes.SummaryCube.RecentActivities.Columns.ObjectType:CORE","false","type"
"ACE.ALM.ApplicationSettings.ACECubes.SummaryCube.RecentActivities.Columns.ObjectType:CORE:Formatter","Formatter","ACE.ALM.ApplicationSettings.ACECubes.SummaryCube.RecentActivities.Columns.ObjectType:CORE","false","sobjectIconFormatter"
"ACE.ALM.ApplicationSettings.ACECubes.SummaryCube.RecentActivities.Columns.ObjectType:CORE:Label","Label","ACE.ALM.ApplicationSettings.ACECubes.SummaryCube.RecentActivities.Columns.ObjectType:CORE","false",""
"ACE.ALM.ApplicationSettings.ACECubes.SummaryCube.RecentActivities.Columns.ObjectType:CORE:Resizable","Resizable","ACE.ALM.ApplicationSettings.ACECubes.SummaryCube.RecentActivities.Columns.ObjectType:CORE","false","FALSE"
"ACE.ALM.ApplicationSettings.ACECubes.SummaryCube.RecentActivities.Columns.ObjectType:CORE:Width","Width","ACE.ALM.ApplicationSettings.ACECubes.SummaryCube.RecentActivities.Columns.ObjectType:CORE","false","20"
"ACE.ALM.ApplicationSettings.ACECubes.SummaryCube.RecentActivities.Columns.Subject:CORE:DataField","DataField","ACE.ALM.ApplicationSettings.ACECubes.SummaryCube.RecentActivities.Columns.Subject:CORE","true","subject"
"ACE.ALM.ApplicationSettings.ACECubes.SummaryCube.RecentActivities.Columns.Subject:CORE:Label","Label","ACE.ALM.ApplicationSettings.ACECubes.SummaryCube.RecentActivities.Columns.Subject:CORE","true","{Locale.SUBJECT_LABEL}"
"ACE.ALM.ApplicationSettings.ACECubes.SummaryCube.RecentActivities.Columns.Subject:CORE:Order","Order","ACE.ALM.ApplicationSettings.ACECubes.SummaryCube.RecentActivities.Columns.Subject:CORE","true","3"
"ACE.ALM.ApplicationSettings.ACECubes.SummaryCube.RecentActivities.Columns.Type:CORE:DataField","DataField","ACE.ALM.ApplicationSettings.ACECubes.SummaryCube.RecentActivities.Columns.Type:CORE","true","activityType"
"ACE.ALM.ApplicationSettings.ACECubes.SummaryCube.RecentActivities.Columns.Type:CORE:Label","Label","ACE.ALM.ApplicationSettings.ACECubes.SummaryCube.RecentActivities.Columns.Type:CORE","true","{Locale.TYPE_LABEL}"
"ACE.ALM.ApplicationSettings.ACECubes.SummaryCube.RecentActivities.Columns.Type:CORE:Order","Order","ACE.ALM.ApplicationSettings.ACECubes.SummaryCube.RecentActivities.Columns.Type:CORE","true","1"
"ACE.ALM.ApplicationSettings.ACECubes.SummaryCube.SummaryCubeNavBar.Account:CORE:AnchorLabel","AnchorLabel","ACE.ALM.ApplicationSettings.ACECubes.SummaryCube.SummaryCubeNavBar.Account:CORE","false","{Locale.ACCOUNT_LABEL}"
"ACE.ALM.ApplicationSettings.ACECubes.SummaryCube.SummaryCubeNavBar.Account:CORE:AnchorTarget","AnchorTarget","ACE.ALM.ApplicationSettings.ACECubes.SummaryCube.SummaryCubeNavBar.Account:CORE","false","accountDetails"
"ACE.ALM.ApplicationSettings.ACECubes.SummaryCube.SummaryCubeNavBar.Account:CORE:Order","Order","ACE.ALM.ApplicationSettings.ACECubes.SummaryCube.SummaryCubeNavBar.Account:CORE","false","1"
"ACE.ALM.ApplicationSettings.ACECubes.SummaryCube.SummaryCubeNavBar.Contact:CORE:AnchorLabel","AnchorLabel","ACE.ALM.ApplicationSettings.ACECubes.SummaryCube.SummaryCubeNavBar.Contact:CORE","false","{Locale.CONTACT_LABEL}"
"ACE.ALM.ApplicationSettings.ACECubes.SummaryCube.SummaryCubeNavBar.Contact:CORE:AnchorTarget","AnchorTarget","ACE.ALM.ApplicationSettings.ACECubes.SummaryCube.SummaryCubeNavBar.Contact:CORE","false","contactDetails"
"ACE.ALM.ApplicationSettings.ACECubes.SummaryCube.SummaryCubeNavBar.Contact:CORE:IsContact","IsContact","ACE.ALM.ApplicationSettings.ACECubes.SummaryCube.SummaryCubeNavBar.Contact:CORE","false","TRUE"
"ACE.ALM.ApplicationSettings.ACECubes.SummaryCube.SummaryCubeNavBar.Contact:CORE:Order","Order","ACE.ALM.ApplicationSettings.ACECubes.SummaryCube.SummaryCubeNavBar.Contact:CORE","false","2"
"ACE.ALM.ApplicationSettings.ACECubes.SummaryCube.SummaryCubeNavBar.Coverage:CORE:AnchorLabel","AnchorLabel","ACE.ALM.ApplicationSettings.ACECubes.SummaryCube.SummaryCubeNavBar.Coverage:CORE","false","{Locale.COVERAGE}"
"ACE.ALM.ApplicationSettings.ACECubes.SummaryCube.SummaryCubeNavBar.Coverage:CORE:AnchorTarget","AnchorTarget","ACE.ALM.ApplicationSettings.ACECubes.SummaryCube.SummaryCubeNavBar.Coverage:CORE","false","coverageDetails"
"ACE.ALM.ApplicationSettings.ACECubes.SummaryCube.SummaryCubeNavBar.Coverage:CORE:Order","Order","ACE.ALM.ApplicationSettings.ACECubes.SummaryCube.SummaryCubeNavBar.Coverage:CORE","false","5"
"ACE.ALM.ApplicationSettings.ACECubes.SummaryCube.SummaryCubeNavBar.Interactions:CORE:AnchorLabel","AnchorLabel","ACE.ALM.ApplicationSettings.ACECubes.SummaryCube.SummaryCubeNavBar.Interactions:CORE","false","{Locale.INTERACTIONS}"
"ACE.ALM.ApplicationSettings.ACECubes.SummaryCube.SummaryCubeNavBar.Interactions:CORE:AnchorTarget","AnchorTarget","ACE.ALM.ApplicationSettings.ACECubes.SummaryCube.SummaryCubeNavBar.Interactions:CORE","false","activityDetails"
"ACE.ALM.ApplicationSettings.ACECubes.SummaryCube.SummaryCubeNavBar.Interactions:CORE:Order","Order","ACE.ALM.ApplicationSettings.ACECubes.SummaryCube.SummaryCubeNavBar.Interactions:CORE","false","4"
"ACE.ALM.ApplicationSettings.ACECubes.SummaryCube.SummaryCubeNavBar.Interests:CORE:AnchorLabel","AnchorLabel","ACE.ALM.ApplicationSettings.ACECubes.SummaryCube.SummaryCubeNavBar.Interests:CORE","false","{Locale.INTERESTS}"
"ACE.ALM.ApplicationSettings.ACECubes.SummaryCube.SummaryCubeNavBar.Interests:CORE:AnchorTarget","AnchorTarget","ACE.ALM.ApplicationSettings.ACECubes.SummaryCube.SummaryCubeNavBar.Interests:CORE","false","interestsDetails"
"ACE.ALM.ApplicationSettings.ACECubes.SummaryCube.SummaryCubeNavBar.Interests:CORE:Order","Order","ACE.ALM.ApplicationSettings.ACECubes.SummaryCube.SummaryCubeNavBar.Interests:CORE","false","3"
"ACE.ALM.ApplicationSettings.ACECubes.TopRightCube.Faces.SummaryCube:CORE:Data","Data","ACE.ALM.ApplicationSettings.ACECubes.TopRightCube.Faces.SummaryCube:CORE","false","{@ACE.ALM.ApplicationSettings.ACECubes.SummaryCube.Layout.Layout}"
"ACE.ALM.ApplicationSettings.ACECubes.TopRightCube.Faces.SummaryCube:CORE:DefaultMaximized","DefaultMaximized","ACE.ALM.ApplicationSettings.ACECubes.TopRightCube.Faces.SummaryCube:CORE","false","TRUE"
"ACE.ALM.ApplicationSettings.ACECubes.TopRightCube.Faces.SummaryCube:CORE:Enabled","Enabled","ACE.ALM.ApplicationSettings.ACECubes.TopRightCube.Faces.SummaryCube:CORE","false","true"
"ACE.ALM.ApplicationSettings.ACECubes.TopRightCube.Faces.SummaryCube:CORE:Label","Label","ACE.ALM.ApplicationSettings.ACECubes.TopRightCube.Faces.SummaryCube:CORE","false","Summary Cube"
"ACE.ALM.ApplicationSettings.ACECubes.TopRightCube.Faces.SummaryCube:CORE:Order","Order","ACE.ALM.ApplicationSettings.ACECubes.TopRightCube.Faces.SummaryCube:CORE","false","1"
"ACE.ALM.ApplicationSettings.ACECubes.TopRightCube.Faces.SummaryCube:CORE:Type","Type","ACE.ALM.ApplicationSettings.ACECubes.TopRightCube.Faces.SummaryCube:CORE","false","ELLIPSES"
"ACE.ALM.ApplicationSettings.ACECubes.TopRightCube.Faces.SummaryCubeDev:CORE:ConfigPath","ConfigPath","ACE.ALM.ApplicationSettings.ACECubes.TopRightCube.Faces.SummaryCubeDev:CORE","false","ACE.CubeConfig.SummaryCube"
"ACE.ALM.ApplicationSettings.ACECubes.TopRightCube.Faces.SummaryCubeDev:CORE:Data","Data","ACE.ALM.ApplicationSettings.ACECubes.TopRightCube.Faces.SummaryCubeDev:CORE","false","{Resource.SummaryCube}"
"ACE.ALM.ApplicationSettings.ACECubes.TopRightCube.Faces.SummaryCubeDev:CORE:DefaultMaximized","DefaultMaximized","ACE.ALM.ApplicationSettings.ACECubes.TopRightCube.Faces.SummaryCubeDev:CORE","false","TRUE"
"ACE.ALM.ApplicationSettings.ACECubes.TopRightCube.Faces.SummaryCubeDev:CORE:Enabled","Enabled","ACE.ALM.ApplicationSettings.ACECubes.TopRightCube.Faces.SummaryCubeDev:CORE","false","TRUE"
"ACE.ALM.ApplicationSettings.ACECubes.TopRightCube.Faces.SummaryCubeDev:CORE:Label","Label","ACE.ALM.ApplicationSettings.ACECubes.TopRightCube.Faces.SummaryCubeDev:CORE","false","Summary Cube Dev"
"ACE.ALM.ApplicationSettings.ACECubes.TopRightCube.Faces.SummaryCubeDev:CORE:Order","Order","ACE.ALM.ApplicationSettings.ACECubes.TopRightCube.Faces.SummaryCubeDev:CORE","false","0"
"ACE.ALM.ApplicationSettings.ACECubes.TopRightCube.Faces.SummaryCubeDev:CORE:PluginName","PluginName","ACE.ALM.ApplicationSettings.ACECubes.TopRightCube.Faces.SummaryCubeDev:CORE","false","Custom.SummaryCube"
"ACE.ALM.ApplicationSettings.ACECubes.TopRightCube.Faces.SummaryCubeDev:CORE:Type","Type","ACE.ALM.ApplicationSettings.ACECubes.TopRightCube.Faces.SummaryCubeDev:CORE","false","PLUGIN"
